module cloud.google.com/go/spanner

go 1.19

require (
	cloud.google.com/go v0.112.2
	cloud.google.com/go/iam v1.1.7
	cloud.google.com/go/longrunning v0.5.6
	github.com/GoogleCloudPlatform/grpc-gcp-go/grpcgcp v1.5.0
	github.com/google/go-cmp v0.6.0
	github.com/googleapis/gax-go/v2 v2.12.3
	github.com/json-iterator/go v1.1.12
	github.com/stretchr/testify v1.9.0
	go.opencensus.io v0.24.0
	go.opentelemetry.io/otel v1.24.0
	go.opentelemetry.io/otel/metric v1.24.0
	golang.org/x/oauth2 v0.19.0
	golang.org/x/xerrors v0.0.0-20231012003039-104605ab7028
	google.golang.org/api v0.176.1
	google.golang.org/genproto v0.0.0-20240401170217-c3f982113cda
	google.golang.org/genproto/googleapis/api v0.0.0-20240415180920-8c6c420018be
	google.golang.org/genproto/googleapis/rpc v0.0.0-20240415180920-8c6c420018be
	google.golang.org/grpc v1.63.2
	google.golang.org/protobuf v1.33.0
)

require (
	cloud.google.com/go/auth v0.3.0 // indirect
	cloud.google.com/go/auth/oauth2adapt v0.2.2 // indirect
	cloud.google.com/go/compute/metadata v0.3.0 // indirect
	github.com/census-instrumentation/opencensus-proto v0.4.1 // indirect
	github.com/cespare/xxhash/v2 v2.2.0 // indirect
	github.com/cncf/xds/go v0.0.0-20231128003011-0fa0005c9caa // indirect
	github.com/davecgh/go-spew v1.1.1 // indirect
	github.com/envoyproxy/go-control-plane v0.12.0 // indirect
	github.com/envoyproxy/protoc-gen-validate v1.0.4 // indirect
	github.com/felixge/httpsnoop v1.0.4 // indirect
	github.com/go-logr/logr v1.4.1 // indirect
	github.com/go-logr/stdr v1.2.2 // indirect
	github.com/golang/groupcache v0.0.0-20210331224755-41bb18bfe9da // indirect
	github.com/golang/protobuf v1.5.4 // indirect
	github.com/google/s2a-go v0.1.7 // indirect
	github.com/googleapis/enterprise-certificate-proxy v0.3.2 // indirect
	github.com/modern-go/concurrent v0.0.0-20180306012644-bacd9c7ef1dd // indirect
	github.com/modern-go/reflect2 v1.0.2 // indirect
	github.com/pmezard/go-difflib v1.0.0 // indirect
	github.com/rogpeppe/go-internal v1.12.0 // indirect
	github.com/stretchr/objx v0.5.2 // indirect
	go.opentelemetry.io/contrib/instrumentation/google.golang.org/grpc/otelgrpc v0.49.0 // indirect
	go.opentelemetry.io/contrib/instrumentation/net/http/otelhttp v0.49.0 // indirect
	go.opentelemetry.io/otel/sdk v1.24.0 // indirect
	go.opentelemetry.io/otel/trace v1.24.0 // indirect
	golang.org/x/crypto v0.22.0 // indirect
	golang.org/x/net v0.24.0 // indirect
	golang.org/x/sync v0.7.0 // indirect
	golang.org/x/sys v0.19.0 // indirect
	golang.org/x/text v0.14.0 // indirect
	golang.org/x/time v0.5.0 // indirect
	gopkg.in/yaml.v3 v3.0.1 // indirect
)
